{
  "path": "mod_mysticalagriculture/soils/farmland_soil.json",
  "enabled": true,
  "id": "farmland_soil",
  "name": "Farmland",
  "varients": [
    {
      "item": "minecraft:farmland",
      "meta": 0,
      "tags": "",
      "ignoreMeta": true,
      "ignoreTags": [
        "*"
      ],
      "useOreDict": true
    }
  ]
}
